…
# Long
obr_annual(c("CPI", "RPI"), long = TRUE)
#> # A tibble: 38 x 4
#>     year Forecast Indicator  Value
#>    <dbl> <fct>    <chr>      <dbl>
#>  1  2009 outturn  CPI        2.17 
#>  2  2009 outturn  RPI       -0.531
#>  3  2010 outturn  CPI        3.30 
#>  4  2010 outturn  RPI        4.62 
#>  5  2011 outturn  CPI        4.46 
#>  6  2011 outturn  RPI        5.20 
#>  7  2012 outturn  CPI        2.83 
#>  8  2012 outturn  RPI        3.21 
#>  9  2013 outturn  CPI        2.56 
#> 10  2013 outturn  RPI        3.04 
#> # ... with 28 more rows
```
…
